%YAML 1.1
%TAG !u! tag:unity3d.com,2011:
--- !u!114 &11400000
MonoBehaviour:
  m_ObjectHideFlags: 0
  m_CorrespondingSourceObject: {fileID: 0}
  m_PrefabInstance: {fileID: 0}
  m_PrefabAsset: {fileID: 0}
  m_GameObject: {fileID: 0}
  m_Enabled: 1
  m_EditorHideFlags: 0
  m_Script: {fileID: 11500000, guid: a3c871673172e334c8f4e793e3d913e1, type: 3}
  m_Name: LifePoints
  m_EditorClassIdentifier: 
  LifePoints: 1
  CoinValue: 0
  EnergiePoints: 0
  AreaOfEffect: 0
  ItemValue: 0
  ItemName: LifePoints
  mesh: {fileID: 0}
  uiImage: {fileID: 0}
