%YAML 1.1
%TAG !u! tag:unity3d.com,2011:
--- !u!54 &1148036364305164997
Rigidbody:
  m_ObjectHideFlags: 0
  m_CorrespondingSourceObject: {fileID: 0}
  m_PrefabInstance: {fileID: 0}
  m_PrefabAsset: {fileID: 0}
  m_GameObject: {fileID: 3594632892377099073}
  serializedVersion: 2
  m_Mass: 1
  m_Drag: 0
  m_AngularDrag: 0.05
  m_UseGravity: 1
  m_IsKinematic: 0
  m_Interpolate: 0
  m_Constraints: 88
  m_CollisionDetection: 0
--- !u!135 &-3427540586048307134
SphereCollider:
  m_ObjectHideFlags: 0
  m_CorrespondingSourceObject: {fileID: 0}
  m_PrefabInstance: {fileID: 0}
  m_PrefabAsset: {fileID: 0}
  m_GameObject: {fileID: 3594632892377099073}
  m_Material: {fileID: 0}
  m_IsTrigger: 0
  m_Enabled: 1
  serializedVersion: 2
  m_Radius: 0.0022
  m_Center: {x: 0, y: 0, z: 0}
--- !u!1001 &593889774833893981
PrefabInstance:
  m_ObjectHideFlags: 0
  serializedVersion: 2
  m_Modification:
    m_TransformParent: {fileID: 0}
    m_Modifications:
    - target: {fileID: 2557694851574244754, guid: 1dc75d724cfdb024bac176890b40ccfd, type: 3}
      propertyPath: m_IsTrigger
      value: 1
      objectReference: {fileID: 0}
    - target: {fileID: 3644688236843119526, guid: 1dc75d724cfdb024bac176890b40ccfd, type: 3}
      propertyPath: m_RootOrder
      value: 0
      objectReference: {fileID: 0}
    - target: {fileID: 3644688236843119526, guid: 1dc75d724cfdb024bac176890b40ccfd, type: 3}
      propertyPath: m_LocalPosition.x
      value: -6.08
      objectReference: {fileID: 0}
    - target: {fileID: 3644688236843119526, guid: 1dc75d724cfdb024bac176890b40ccfd, type: 3}
      propertyPath: m_LocalPosition.y
      value: 6.31
      objectReference: {fileID: 0}
    - target: {fileID: 3644688236843119526, guid: 1dc75d724cfdb024bac176890b40ccfd, type: 3}
      propertyPath: m_LocalPosition.z
      value: 1.44
      objectReference: {fileID: 0}
    - target: {fileID: 3644688236843119526, guid: 1dc75d724cfdb024bac176890b40ccfd, type: 3}
      propertyPath: m_LocalRotation.w
      value: 0.7071067
      objectReference: {fileID: 0}
    - target: {fileID: 3644688236843119526, guid: 1dc75d724cfdb024bac176890b40ccfd, type: 3}
      propertyPath: m_LocalRotation.x
      value: -0.7071068
      objectReference: {fileID: 0}
    - target: {fileID: 3644688236843119526, guid: 1dc75d724cfdb024bac176890b40ccfd, type: 3}
      propertyPath: m_LocalRotation.y
      value: 0
      objectReference: {fileID: 0}
    - target: {fileID: 3644688236843119526, guid: 1dc75d724cfdb024bac176890b40ccfd, type: 3}
      propertyPath: m_LocalRotation.z
      value: -0
      objectReference: {fileID: 0}
    - target: {fileID: 3644688236843119526, guid: 1dc75d724cfdb024bac176890b40ccfd, type: 3}
      propertyPath: m_LocalEulerAnglesHint.x
      value: 0
      objectReference: {fileID: 0}
    - target: {fileID: 3644688236843119526, guid: 1dc75d724cfdb024bac176890b40ccfd, type: 3}
      propertyPath: m_LocalEulerAnglesHint.y
      value: 0
      objectReference: {fileID: 0}
    - target: {fileID: 3644688236843119526, guid: 1dc75d724cfdb024bac176890b40ccfd, type: 3}
      propertyPath: m_LocalEulerAnglesHint.z
      value: 0
      objectReference: {fileID: 0}
    - target: {fileID: 4170148573509609756, guid: 1dc75d724cfdb024bac176890b40ccfd, type: 3}
      propertyPath: m_Name
      value: BombOnFirePrefab Variant
      objectReference: {fileID: 0}
    m_RemovedComponents:
    - {fileID: 2557694851574244754, guid: 1dc75d724cfdb024bac176890b40ccfd, type: 3}
  m_SourcePrefab: {fileID: 100100000, guid: 1dc75d724cfdb024bac176890b40ccfd, type: 3}
--- !u!1 &3594632892377099073 stripped
GameObject:
  m_CorrespondingSourceObject: {fileID: 4170148573509609756, guid: 1dc75d724cfdb024bac176890b40ccfd, type: 3}
  m_PrefabInstance: {fileID: 593889774833893981}
  m_PrefabAsset: {fileID: 0}
--- !u!4 &4227018845663146491 stripped
Transform:
  m_CorrespondingSourceObject: {fileID: 3644688236843119526, guid: 1dc75d724cfdb024bac176890b40ccfd, type: 3}
  m_PrefabInstance: {fileID: 593889774833893981}
  m_PrefabAsset: {fileID: 0}
--- !u!1001 &2903800591361826050
PrefabInstance:
  m_ObjectHideFlags: 0
  serializedVersion: 2
  m_Modification:
    m_TransformParent: {fileID: 4227018845663146491}
    m_Modifications:
    - target: {fileID: 1253142483436318, guid: 623cdba311309634db98e4a47b2df8ad, type: 3}
      propertyPath: m_Name
      value: BombFire_Prefab
      objectReference: {fileID: 0}
    - target: {fileID: 4521404770085940, guid: 623cdba311309634db98e4a47b2df8ad, type: 3}
      propertyPath: m_RootOrder
      value: 0
      objectReference: {fileID: 0}
    - target: {fileID: 4521404770085940, guid: 623cdba311309634db98e4a47b2df8ad, type: 3}
      propertyPath: m_LocalScale.x
      value: 0.01
      objectReference: {fileID: 0}
    - target: {fileID: 4521404770085940, guid: 623cdba311309634db98e4a47b2df8ad, type: 3}
      propertyPath: m_LocalScale.y
      value: 0.010000003
      objectReference: {fileID: 0}
    - target: {fileID: 4521404770085940, guid: 623cdba311309634db98e4a47b2df8ad, type: 3}
      propertyPath: m_LocalScale.z
      value: 0.010000003
      objectReference: {fileID: 0}
    - target: {fileID: 4521404770085940, guid: 623cdba311309634db98e4a47b2df8ad, type: 3}
      propertyPath: m_LocalPosition.x
      value: -0.00086
      objectReference: {fileID: 0}
    - target: {fileID: 4521404770085940, guid: 623cdba311309634db98e4a47b2df8ad, type: 3}
      propertyPath: m_LocalPosition.y
      value: 0.00025
      objectReference: {fileID: 0}
    - target: {fileID: 4521404770085940, guid: 623cdba311309634db98e4a47b2df8ad, type: 3}
      propertyPath: m_LocalPosition.z
      value: 0.00406
      objectReference: {fileID: 0}
    - target: {fileID: 4521404770085940, guid: 623cdba311309634db98e4a47b2df8ad, type: 3}
      propertyPath: m_LocalRotation.w
      value: 1
      objectReference: {fileID: 0}
    - target: {fileID: 4521404770085940, guid: 623cdba311309634db98e4a47b2df8ad, type: 3}
      propertyPath: m_LocalRotation.x
      value: 0.00000008940697
      objectReference: {fileID: 0}
    - target: {fileID: 4521404770085940, guid: 623cdba311309634db98e4a47b2df8ad, type: 3}
      propertyPath: m_LocalRotation.y
      value: -0
      objectReference: {fileID: 0}
    - target: {fileID: 4521404770085940, guid: 623cdba311309634db98e4a47b2df8ad, type: 3}
      propertyPath: m_LocalRotation.z
      value: -0
      objectReference: {fileID: 0}
    - target: {fileID: 4521404770085940, guid: 623cdba311309634db98e4a47b2df8ad, type: 3}
      propertyPath: m_LocalEulerAnglesHint.x
      value: 0
      objectReference: {fileID: 0}
    - target: {fileID: 4521404770085940, guid: 623cdba311309634db98e4a47b2df8ad, type: 3}
      propertyPath: m_LocalEulerAnglesHint.y
      value: 0
      objectReference: {fileID: 0}
    - target: {fileID: 4521404770085940, guid: 623cdba311309634db98e4a47b2df8ad, type: 3}
      propertyPath: m_LocalEulerAnglesHint.z
      value: 0
      objectReference: {fileID: 0}
    m_RemovedComponents: []
  m_SourcePrefab: {fileID: 100100000, guid: 623cdba311309634db98e4a47b2df8ad, type: 3}
