%YAML 1.1
%TAG !u! tag:unity3d.com,2011:
--- !u!1001 &8720286578756397653
PrefabInstance:
  m_ObjectHideFlags: 0
  serializedVersion: 2
  m_Modification:
    m_TransformParent: {fileID: 0}
    m_Modifications:
    - target: {fileID: -8679921383154817045, guid: 59d0050d28e9a4bf487c7f7af8c2fe06, type: 3}
      propertyPath: m_RootOrder
      value: 0
      objectReference: {fileID: 0}
    - target: {fileID: -8679921383154817045, guid: 59d0050d28e9a4bf487c7f7af8c2fe06, type: 3}
      propertyPath: m_LocalScale.x
      value: 140
      objectReference: {fileID: 0}
    - target: {fileID: -8679921383154817045, guid: 59d0050d28e9a4bf487c7f7af8c2fe06, type: 3}
      propertyPath: m_LocalScale.y
      value: 140
      objectReference: {fileID: 0}
    - target: {fileID: -8679921383154817045, guid: 59d0050d28e9a4bf487c7f7af8c2fe06, type: 3}
      propertyPath: m_LocalScale.z
      value: 140
      objectReference: {fileID: 0}
    - target: {fileID: -8679921383154817045, guid: 59d0050d28e9a4bf487c7f7af8c2fe06, type: 3}
      propertyPath: m_LocalPosition.x
      value: 0
      objectReference: {fileID: 0}
    - target: {fileID: -8679921383154817045, guid: 59d0050d28e9a4bf487c7f7af8c2fe06, type: 3}
      propertyPath: m_LocalPosition.y
      value: 0
      objectReference: {fileID: 0}
    - target: {fileID: -8679921383154817045, guid: 59d0050d28e9a4bf487c7f7af8c2fe06, type: 3}
      propertyPath: m_LocalPosition.z
      value: 0
      objectReference: {fileID: 0}
    - target: {fileID: -8679921383154817045, guid: 59d0050d28e9a4bf487c7f7af8c2fe06, type: 3}
      propertyPath: m_LocalRotation.w
      value: 1
      objectReference: {fileID: 0}
    - target: {fileID: -8679921383154817045, guid: 59d0050d28e9a4bf487c7f7af8c2fe06, type: 3}
      propertyPath: m_LocalRotation.x
      value: 0
      objectReference: {fileID: 0}
    - target: {fileID: -8679921383154817045, guid: 59d0050d28e9a4bf487c7f7af8c2fe06, type: 3}
      propertyPath: m_LocalRotation.y
      value: 0
      objectReference: {fileID: 0}
    - target: {fileID: -8679921383154817045, guid: 59d0050d28e9a4bf487c7f7af8c2fe06, type: 3}
      propertyPath: m_LocalRotation.z
      value: 0
      objectReference: {fileID: 0}
    - target: {fileID: -8679921383154817045, guid: 59d0050d28e9a4bf487c7f7af8c2fe06, type: 3}
      propertyPath: m_LocalEulerAnglesHint.x
      value: 0
      objectReference: {fileID: 0}
    - target: {fileID: -8679921383154817045, guid: 59d0050d28e9a4bf487c7f7af8c2fe06, type: 3}
      propertyPath: m_LocalEulerAnglesHint.y
      value: 0
      objectReference: {fileID: 0}
    - target: {fileID: -8679921383154817045, guid: 59d0050d28e9a4bf487c7f7af8c2fe06, type: 3}
      propertyPath: m_LocalEulerAnglesHint.z
      value: 0
      objectReference: {fileID: 0}
    - target: {fileID: 919132149155446097, guid: 59d0050d28e9a4bf487c7f7af8c2fe06, type: 3}
      propertyPath: m_Name
      value: MovingEnemyLvl1
      objectReference: {fileID: 0}
    m_RemovedComponents: []
  m_SourcePrefab: {fileID: 100100000, guid: 59d0050d28e9a4bf487c7f7af8c2fe06, type: 3}
